<?xml version="1.0" standalone="no"?>
<!DOCTYPE svg PUBLIC "-//W3C//DTD SVG 20010904//EN"
 "http://www.w3.org/TR/2001/REC-SVG-20010904/DTD/svg10.dtd">
<svg version="1.0" xmlns="http://www.w3.org/2000/svg"
 width="700.000000pt" height="700.000000pt" viewBox="0 0 700.000000 700.000000"
 preserveAspectRatio="xMidYMid meet">
<metadata>
Created by potrace 1.11, written by Peter Selinger 2001-2013
</metadata>
<g transform="translate(0.000000,700.000000) scale(0.100000,-0.100000)"
fill="#000000" stroke="none">
<path d="M2187 5733 c-4 -3 -7 -980 -7 -2170 l0 -2163 1320 0 1320 0 -2 2168
-3 2167 -1311 3 c-721 1 -1314 -1 -1317 -5z m989 -1339 c55 -36 72 -128 33
-178 -59 -75 -161 -72 -209 7 -36 59 -19 134 39 170 34 21 105 21 137 1z m914
-309 l325 -325 -325 -325 -325 -325 -130 130 -130 130 198 198 197 197 -197
198 -198 197 125 125 c69 69 127 125 130 125 3 0 151 -146 330 -325z m-1258
-335 c78 -22 138 -103 138 -185 0 -101 -92 -195 -190 -195 -61 0 -146 53 -176
111 -22 44 -18 137 9 181 49 81 129 113 219 88z m447 -813 c59 -39 84 -94 79
-173 -3 -52 -9 -70 -34 -100 -41 -51 -88 -74 -152 -74 -68 0 -124 28 -158 80
-31 47 -42 121 -25 172 13 38 59 88 106 113 45 24 133 16 184 -18z"/>
<path d="M3102 1203 l3 -68 395 0 395 0 3 68 3 67 -401 0 -401 0 3 -67z"/>
</g>
</svg>
